
/=======================================================================================\
Elapsed time log for neuron_ariel.py
Date : Dim 15 mai 2022 14:19:54 CEST
Made by Clément Bourretère at 6/5/22
|=======================================================================================|
Date at the beginning of python :Dim 15 mai 2022 14:19:54 CEST
Date at the end of python       : Dim 15 mai 2022 14:19:54 CEST
Elapsed time in sec          : 0
\=======================================================================================/

/=======================================================================================\
Elapsed time log for neuron_ariel.py
Date : Dim 15 mai 2022 14:19:58 CEST
Made by Clément Bourretère at 6/5/22
|=======================================================================================|
Date at the beginning of python :Dim 15 mai 2022 14:19:58 CEST
Date at the end of python       : Dim 15 mai 2022 14:20:02 CEST
Elapsed time in sec          : 4
\=======================================================================================/

/=======================================================================================\
Elapsed time log for neuron_ariel.py
Date : Dim 15 mai 2022 14:20:17 CEST
Made by Clément Bourretère at 6/5/22
|=======================================================================================|
Date at the beginning of python :Dim 15 mai 2022 14:20:17 CEST
Date at the end of python       : Dim 15 mai 2022 14:20:18 CEST
Elapsed time in sec          : 1
\=======================================================================================/

/=======================================================================================\
Elapsed time log for neuron_ariel.py
Date : Dim 15 mai 2022 14:24:06 CEST
Made by Clément Bourretère at 6/5/22
|=======================================================================================|
Date at the beginning of python :Dim 15 mai 2022 14:24:06 CEST
Date at the end of python       : Dim 15 mai 2022 14:24:19 CEST
Elapsed time in sec          : 13
\=======================================================================================/

/=======================================================================================\
Elapsed time log for neuron_ariel.py
Date : Dim 15 mai 2022 14:24:36 CEST
Made by Clément Bourretère at 6/5/22
|=======================================================================================|
Date at the beginning of python :Dim 15 mai 2022 14:24:36 CEST
Date at the end of python       : Dim 15 mai 2022 14:24:37 CEST
Elapsed time in sec          : 1
\=======================================================================================/

/=======================================================================================\
Elapsed time log for neuron_ariel.py
Date : Dim 15 mai 2022 14:24:46 CEST
Made by Clément Bourretère at 6/5/22
|=======================================================================================|
Date at the beginning of python :Dim 15 mai 2022 14:24:46 CEST
Date at the end of python       : Dim 15 mai 2022 14:24:52 CEST
Elapsed time in sec          : 6
\=======================================================================================/

/=======================================================================================\
Elapsed time log for neuron_ariel.py
Date : Dim 15 mai 2022 14:25:39 CEST
Made by Clément Bourretère at 6/5/22
|=======================================================================================|
Date at the beginning of python :Dim 15 mai 2022 14:25:39 CEST
Date at the end of python       : Dim 15 mai 2022 14:25:40 CEST
Elapsed time in sec          : 1
\=======================================================================================/

/=======================================================================================\
Elapsed time log for neuron_ariel.py
Date : Dim 15 mai 2022 14:26:00 CEST
Made by Clément Bourretère at 6/5/22
|=======================================================================================|
Date at the beginning of python :Dim 15 mai 2022 14:26:00 CEST
Date at the end of python       : Dim 15 mai 2022 14:26:03 CEST
Elapsed time in sec          : 3
\=======================================================================================/

/=======================================================================================\
Elapsed time log for neuron_ariel.py
Date : Dim 15 mai 2022 14:26:13 CEST
Made by Clément Bourretère at 6/5/22
|=======================================================================================|
Date at the beginning of python :Dim 15 mai 2022 14:26:13 CEST
Date at the end of python       : Dim 15 mai 2022 14:26:45 CEST
Elapsed time in sec          : 32
\=======================================================================================/

/=======================================================================================\
Elapsed time log for neuron_ariel.py
Date : Dim 15 mai 2022 14:26:47 CEST
Made by Clément Bourretère at 6/5/22
|=======================================================================================|
Date at the beginning of python :Dim 15 mai 2022 14:26:47 CEST
Date at the end of python       : Dim 15 mai 2022 14:27:30 CEST
Elapsed time in sec          : 43
\=======================================================================================/
