
/=======================================================================================\
Elapsed time log for neuron_ariel.py
Date : Dim 8 mai 2022 13:32:13 CEST
Made by Clément Bourretère at 6/5/22
|=======================================================================================|
Date at the beginning of python :Dim 8 mai 2022 13:32:13 CEST
Date at the end of python       : Dim 8 mai 2022 13:58:46 CEST
Elapsed time in sec          : 1593
\=======================================================================================/
